%YAML 1.1
%TAG !u! tag:unity3d.com,2011:
--- !u!114 &11400000
MonoBehaviour:
  m_ObjectHideFlags: 0
  m_PrefabParentObject: {fileID: 0}
  m_PrefabInternal: {fileID: 0}
  m_GameObject: {fileID: 0}
  m_Enabled: 1
  m_EditorHideFlags: 0
  m_Script: {fileID: 11500000, guid: 34c2d8719aee46f40965e21667a8a408, type: 3}
  m_Name: GameMode PVP
  m_EditorClassIdentifier: 
  minPlayers: 2
  playerPrefab: {fileID: 1433810111170356, guid: 303c9fa359ef7634582ee7b90cea2f69,
    type: 2}
  onlineSceneName: MultiplayerPVP
  progress: 0
