%YAML 1.1
%TAG !u! tag:unity3d.com,2011:
--- !u!114 &11400000
MonoBehaviour:
  m_ObjectHideFlags: 0
  m_PrefabParentObject: {fileID: 0}
  m_PrefabInternal: {fileID: 0}
  m_GameObject: {fileID: 0}
  m_Enabled: 1
  m_EditorHideFlags: 0
  m_Script: {fileID: 11500000, guid: 13dd82e52d8e5eb4bb844e2723d85118, type: 3}
  m_Name: HammerHit
  m_EditorClassIdentifier: 
  m_tag: effect
  m_clip: {fileID: 8300000, guid: 03380ab0e8c126b4985dc2d7394bb2b3, type: 3}
  m_outputMixerGroup: {fileID: 243015819449108140, guid: 44eae645611435a4ca7f9114efdaae45,
    type: 2}
  m_volume: 0.5
  m_pitch: 1
